strItemType
s
item_tow_hk47_move_immune_06_01
weapon_tow_carbine_sfor_05_01
weapon_tow_rifle_must_disruptor_05_01
weapon_tow_pistol_intimidator_05_01
weapon_tow_knuckler_massassi_05_01
weapon_tow_1h_must_bandit_sword_05_01
weapon_tow_polearm_xandak_lance_05_01
weapon_tow_2h_tulrus_sword_05_01
object/tangible/loot/mustafar/cube_loot/cube_loot_3m.iff
item_tow_schematic_saber_03_01

